<svg width="36" height="36" viewBox="0 0 36 36" fill="none" xmlns="http://www.w3.org/2000/svg">
<path d="M31.3155 20.9685L24.9743 28.2428C24.8317 28.4063 24.6255 28.5 24.4087 28.5H19.7775C19.5983 28.5 19.425 28.5638 19.2892 28.6808L14.4608 32.82C14.325 32.9362 14.1517 33 13.9725 33H12.75C12.336 33 12 32.664 12 32.25V29.25C12 28.836 11.664 28.5 11.25 28.5H5.25C4.836 28.5 4.5 28.164 4.5 27.75V11.9572C4.5 11.8403 4.527 11.7255 4.5795 11.6213L7.56525 5.664C7.69275 5.4105 7.95225 5.25 8.23575 5.25H30.75C31.164 5.25 31.5 5.586 31.5 6V20.4757C31.5 20.6573 31.4348 20.832 31.3155 20.9685Z" fill="#8343C8"/>
<path d="M29.25 19.7767C27.9998 21.1845 26.7502 22.5922 25.5 24C23.7502 24 21.9998 24 20.25 24C18.5002 25.5 16.7498 27 15 28.5C15 27 15 25.5 15 24C12.9997 23.994 11.0003 23.988 9 23.982C9 18.4875 9 12.9937 9 7.5C15.75 7.5 22.5 7.5 29.25 7.5C29.25 11.592 29.25 15.684 29.25 19.7767Z" fill="#FAFAFA"/>
<path d="M18 12H15.75V19.5H18V12Z" fill="#8343C8"/>
<path d="M24.75 12H22.5V19.5H24.75V12Z" fill="#8343C8"/>
</svg>
